USMR - 7A: Multiple Linear Regression
…
Using the broom package is a nice way to get confidence intervals across a range of values that we want to plot.

First we create a dataset of the values of the predictors that we wish to predict across. We’ll go across all values of commute from 3 to 58 (the range of commuting times in our data), and we’ll keep work_flex as 20.75 (which is the mean of work_flex in our data):

plotdata <- data.frame(
  commute = 3:58, # integers from 3 to 58
  work_flex = 20.75 # every value will be 20.75
)

Then we use augment() from the broom package to give predictions and intervals5 to that data:

library(broom)
augment(model2, newdata = plotdata, interval="confidence")

# A tibble: 56 × 5
   commute work_flex .fitted .lower .upper
     <int>     <dbl>   <dbl>  <dbl>  <dbl>
 1       3      20.8    19.2   17.8   20.5
 2       4      20.8    19.2   17.8   20.5
 3       5      20.8    19.1   17.8   20.4
 4       6      20.8    19.1   17.8   20.3
 5       7      20.8    19.0   17.8   20.2
 6       8      20.8    19.0   17.8   20.2
 7       9      20.8    19.0   17.8   20.1
 8      10      20.8    18.9   17.8   20.0
 9      11      20.8    18.9   17.8   19.9
10      12      20.8    18.9   17.8   19.9
# ℹ 46 more rows
…
