USMR - 7A: Simple Linear Regression
…
predict(my_model)

fitted(my_model)

fitted.values(my_model)

my_model$fitted.values

A nice package which will come in handy is the broom package. It allows us to use the function augment(), which gives us out lots of information, such as the model predicted values, the residuals, and many more:

library(broom)
augment(my_model)

# A tibble: 100 × 8
       y     x .fitted .resid   .hat .sigma  .cooksd .std.resid
   <dbl> <dbl>   <dbl>  <dbl>  <dbl>  <dbl>    <dbl>      <dbl>
 1  4.42  3.19    4.03  0.388 0.0102  0.935 0.000903      0.420
 2  4.48  2.57    3.54  0.941 0.0130  0.931 0.00681       1.02 
 3  2.72  3.91    4.59 -1.87  0.0180  0.916 0.0378       -2.03 
 4  5.39  4.79    5.28  0.107 0.0438  0.935 0.000319      0.118
 5  3.85  4.00    4.66 -0.809 0.0197  0.932 0.00776      -0.878
 6  4.42  4.11    4.74 -0.327 0.0222  0.935 0.00143      -0.355
 7  4.30  2.72    3.66  0.638 0.0114  0.933 0.00274       0.689
 8  5.94  4.02    4.68  1.26  0.0202  0.927 0.0193        1.37 
 9  1.70  3.05    3.92 -2.22  0.0100  0.908 0.0291       -2.40 
10  4.79  4.58    5.11 -0.318 0.0358  0.935 0.00224      -0.348
# … with 90 more rows
…
Binary predictors in linear regression

We can include categorical predictors in a linear regression, but the interpretation of the coefficients is very specific. Whereas we talked about coefficients being interpreted as “the change in \(y\) associated with a 1-unit increase in \(x\)”, for categorical explanatory variables, coefficients can be considered to examine differences in group means. However, they are actually doing exactly the same thing - the model is simply translating the levels (like “Level1”/“Level2”, or “Yes”/“No”, or “High”/“Low”) in to 0s and 1s!

So while we may have in our dataframe a categorical predictor like the middle column “x_cat”, below, what is inputted into our model is more like the third column, “isLevel2”.

# A tibble: 100 × 3
       y x_cat  isLevel2
   <dbl> <chr>     <dbl>
 1  5.90 level2        1
 2  4.82 level2        1
 3  5.70 level2        1
 4  4.81 level2        1
 5  2.42 level1        0
 6  3.82 level1        0
 7  3.88 level1        0
 8  5.57 level2        1
 9  6.25 level2        1
10  3.51 level2        1
# … with 90 more rows
…
