USMR - Week 10 Exercises: Logistic Regression
…
Error in `mutate()`:
! Problem while computing `predprobs = predict(catdogmod)`.
✖ `predprobs` must be size 80 or 1, not 79.

We could try making our dataset “complete cases” (remove all rows with any missingness), and then refit our model, and then the data and the model would all be the same number of observations.

However, the broom package has a really useful function which will bring us back the data that was fed into the model (i.e. excluding the NAs), and lots of information about the model fit itself such as predictions (.fitted column), residuals, and leverage etc.

library(broom)
augment(catdogmod, type.predict = "response")

# A tibble: 79 × 13
   .rown…¹ catdog extra…² agree…³ consc…⁴ emot_…⁵ imagi…⁶ .fitted .resid .std.…⁷
   <chr>   <fct>    <dbl>   <dbl>   <dbl>   <dbl>   <dbl>   <dbl>  <dbl>   <dbl>
 1 1       dog         30      42      33      30      33   0.614  0.987   1.00 
 2 2       dog         34      39      36      31      33   0.641  0.943   0.956
 3 3       cat         22      44      29      27      37   0.488 -1.16   -1.20 
 4 4       cat         23      40      35      20      42   0.426 -1.05   -1.08 
 5 5       dog         16      36      31      27      40   0.371  1.41    1.46 
 6 6       dog         34      44      42      37      36   0.779  0.707   0.724
 7 7       cat         32      43      32      24      40   0.495 -1.17   -1.19 
 8 8       dog         32      35      43      16      28   0.637  0.951   1.02 
 9 9       cat         31      42      42      20      46   0.539 -1.24   -1.28 
10 10      cat         31      43      39      36      34   0.740 -1.64   -1.67 
# … with 69 more rows, 3 more variables: .hat <dbl>, .sigma <dbl>,
#   .cooksd <dbl>, and abbreviated variable names ¹​.rownames, ²​extraversion,
#   ³​agreeableness, ⁴​conscientiousness, ⁵​emot_stability, ⁶​imagination,
#   ⁷​.std.resid
…
