11: Multiple Linear Regression – Linear Models
…
So how do we create plots like the on one the right? There are various helpful packages that are designed to make this easy (which we will come to a little later on in the course), but right now it will be very useful to go through the process of making these plots manually.

We will need to create a little dataset of the values of the predictors that we wish to predict across. We’ll go across all values of commute from 3 to 58 (the range of commuting times in our data), and we’ll keep work_flex as 20.75 (which is the mean of work_flex in our data):

plotdata <- data.frame(
  commute = 3:58, # integers from 3 to 58
  work_flex = 20.75 # every value will be 20.75
)

Using this little dataset we can now form predictions from our model, which we can then plot. Using the broom package is a nice way to get the confidence intervals5 as well as the predictions, and it returns it all attached to the dataframe:

library(broom)
augment(model2, newdata = plotdata, interval="confidence")

# A tibble: 56 × 5
   commute work_flex .fitted .lower .upper
     <int>     <dbl>   <dbl>  <dbl>  <dbl>
 1       3      20.8    19.2   17.8   20.5
 2       4      20.8    19.2   17.8   20.5
 3       5      20.8    19.1   17.8   20.4
 4       6      20.8    19.1   17.8   20.3
 5       7      20.8    19.0   17.8   20.2
 6       8      20.8    19.0   17.8   20.2
 7       9      20.8    19.0   17.8   20.1
 8      10      20.8    18.9   17.8   20.0
 9      11      20.8    18.9   17.8   19.9
10      12      20.8    18.9   17.8   19.9
# ℹ 46 more rows
…
