Categorical Distributions
…
If we leave either rows or columns blank, then we will get out all of them:

# tenth row, all columns:
starwars2[10, ]

## # A tibble: 1 x 6
##   name           height hair_color    eye_color homeworld species
##   <chr>           <dbl> <chr>         <chr>     <chr>     <chr>  
## 1 Obi-Wan Kenobi    182 auburn, white blue-gray Stewjon   Human

# all rows, 2nd column:
starwars2[ , 2]

## # A tibble: 75 x 1
##    height
##     <dbl>
##  1    172
##  2    167
##  3     96
##  4    202
##  5    150
##  6    178
##  7    165
##  8     97
##  9    183
## 10    182
## # … with 65 more rows
…
starwars2[c(35,75), ]

## # A tibble: 2 x 6
##   name          height hair_color eye_color homeworld   species
##   <chr>          <dbl> <chr>      <chr>     <chr>       <chr>  
## 1 Marge Simpson    1.7 Blue       <NA>      Springfield unknown
## 2 Homer Simpson    1.8 <NA>       <NA>      Springfield unknown

We can remove a certain row(s) by using a minus sign - inside the square brackets

# everything minus the 75th row
starwars2[-75, ]

## # A tibble: 74 x 6
##    name               height hair_color    eye_color homeworld species 
##    <chr>               <dbl> <chr>         <chr>     <chr>     <chr>   
##  1 Luke Skywalker       1.72 blond         blue      Tatooine  Human   
##  2 C-3PO                1.67 <NA>          yellow    Tatooine  Droid   
##  3 R2-D2                0.96 <NA>          red       Naboo     Nabooian
##  4 Darth Vader          2.02 none          yellow    Tatooine  Human   
##  5 Leia Organa          1.5  brown         brown     Alderaan  Human   
##  6 Owen Lars            1.78 brown, grey   blue      Tatooine  Human   
##  7 Beru Whitesun lars   1.65 brown         blue      Tatooine  Human   
##  8 R5-D4                0.97 <NA>          red       Tatooine  Droid   
##  9 Biggs Darklighter    1.83 black         brown     Tatooine  Human   
## 10 Obi-Wan Kenobi       1.82 auburn, white blue-gray Stewjon   Human   
## # … with 64 more rows

# everything minus the (35th and 75th rows)
starwars2[-c(35, 75), ]

## # A tibble: 73 x 6
##    name               height hair_color    eye_color homeworld species 
##    <chr>               <dbl> <chr>         <chr>     <chr>     <chr>   
##  1 Luke Skywalker       1.72 blond         blue      Tatooine  Human   
##  2 C-3PO                1.67 <NA>          yellow    Tatooine  Droid   
##  3 R2-D2                0.96 <NA>          red       Naboo     Nabooian
##  4 Darth Vader          2.02 none          yellow    Tatooine  Human   
##  5 Leia Organa          1.5  brown         brown     Alderaan  Human   
##  6 Owen Lars            1.78 brown, grey   blue      Tatooine  Human   
##  7 Beru Whitesun lars   1.65 brown         blue      Tatooine  Human   
##  8 R5-D4                0.97 <NA>          red       Tatooine  Droid   
##  9 Biggs Darklighter    1.83 black         brown     Tatooine  Human   
## 10 Obi-Wan Kenobi       1.82 auburn, white blue-gray Stewjon   Human   
## # … with 63 more rows
…
starwars2 <- starwars2[-c(35, 75), ]

(now, in the environment pane of Rstudio, the object named “starwars2” will say 73 observations, rather than 75, which it had before - we’ve removed the 2 rows)

The same logic applies for columns:

# Create a new object called "anonymous_starwars2" and assign it 
# to the values which are the "starwars2" dataframe minus the 
# 1st column (the "name" column):
anonymous_starwars2 <- starwars2[, -1]

# print out anonymous_starwars2
anonymous_starwars2

## # A tibble: 73 x 5
##    height hair_color    eye_color homeworld species 
##     <dbl> <chr>         <chr>     <chr>     <chr>   
##  1   1.72 blond         blue      Tatooine  Human   
##  2   1.67 <NA>          yellow    Tatooine  Droid   
##  3   0.96 <NA>          red       Naboo     Nabooian
##  4   2.02 none          yellow    Tatooine  Human   
##  5   1.5  brown         brown     Alderaan  Human   
##  6   1.78 brown, grey   blue      Tatooine  Human   
##  7   1.65 brown         blue      Tatooine  Human   
##  8   0.97 <NA>          red       Tatooine  Droid   
##  9   1.83 black         brown     Tatooine  Human   
## 10   1.82 auburn, white blue-gray Stewjon   Human   
## # … with 63 more rows
…
