Linear Regression
…
Binary predictors in linear regression

We can include categorical predictors in a linear regression, but the interpretation of the coefficients is very specific. Whereas we talked about coefficients being interpreted as “the change in \(y\) associated with a 1-unit increase in \(x\),” for categorical explanatory variables, coefficients can be considered to examine differences in group means. However, they are actually doing exactly the same thing - the model is simply translating the levels (like “Yes”/“No”) in to 0s and 1s!

So while we may have in our dataframe a categorical predictor like the middle column “degree,” below, what is inputted into our model is more like the third column, “isYes.”

## # A tibble: 32 × 3
##    income degree isYes
##     <dbl> <chr>  <dbl>
##  1   50.3 No         0
##  2   32.6 No         0
##  3   65.1 Yes        1
##  4   54.7 Yes        1
##  5   56.0 Yes        1
##  6   38.6 No         0
##  7   60.1 No         0
##  8   61.6 Yes        1
##  9   34.2 No         0
## 10   70.0 Yes        1
## # … with 22 more rows
…
