Chapter 2 Types of data | Univariate Statistics and Methodology using R
…
some_data<-dplyr::starwars %>% select(-mass, -skin_color, -films, -vehicles,-starships, -gender,-birth_year)
some_data[87,]<-c("Homer Simpson",180,NA,NA,"Springfield","unknown")
some_data[2,"species"]<-"Human"
some_data[7,"height"]<-9420

Reading data from the internet

Note that when you have a url for some data, such as link, you can read it in directly by giving functions like read_csv() the url inside quotation marks.

We can print out the top of the data by using the name we just gave it:

some_data

# A tibble: 87 x 6
   name               height hair_color    eye_color homeworld species
   <chr>              <chr>  <chr>         <chr>     <chr>     <chr>  
 1 Luke Skywalker     172    blond         blue      Tatooine  Human  
 2 C-3PO              167    <NA>          yellow    Tatooine  Human  
 3 R2-D2              96     <NA>          red       Naboo     Droid  
 4 Darth Vader        202    none          yellow    Tatooine  Human  
 5 Leia Organa        150    brown         brown     Alderaan  Human  
 6 Owen Lars          178    brown, grey   blue      Tatooine  Human  
 7 Beru Whitesun lars 9420   brown         blue      Tatooine  Human  
 8 R5-D4              97     <NA>          red       Tatooine  Droid  
 9 Biggs Darklighter  183    black         brown     Tatooine  Human  
10 Obi-Wan Kenobi     182    auburn, white blue-gray Stewjon   Human  
# … with 77 more rows
…
If we leave either rows or columns blank, then we will get out all of them:

# tenth row, all columns:
some_data[10, ]

# A tibble: 1 x 6
  name           height hair_color    eye_color homeworld species
  <chr>          <chr>  <chr>         <chr>     <chr>     <chr>  
1 Obi-Wan Kenobi 182    auburn, white blue-gray Stewjon   Human  

# all rows, 2nd column:
some_data[ , 2]

# A tibble: 87 x 1
   height
   <chr> 
 1 172   
 2 167   
 3 96    
 4 202   
 5 150   
 6 178   
 7 9420  
 8 97    
 9 183   
10 182   
# … with 77 more rows
…
Continuous
as.numeric()
is.numeric(variable)

Character
as.character()
is.character(variable)

distinct(some_data, species)

# A tibble: 39 x 1
   species       
   <chr>         
 1 Human         
 2 Droid         
 3 Wookiee       
 4 Rodian        
 5 Hutt          
 6 Yoda's species
 7 Trandoshan    
 8 Mon Calamari  
 9 Ewok          
10 Sullustan     
# … with 29 more rows
…
